Provider Facility Affiliations — affiliations • providertwo
…
ccn_primary
<int> 6-digit CMS Certification Number (CCN) of a
sub-unit's primary hospital, should the provider provide services in said unit.

    Periodicity

Monthly (R/P1M)

    Examples

affiliations(facility_type = "Home health agency")
#> # A tibble: 2,000 × 9
#>    npi   pac   last_name first_name middle_name suff  facility_type ccn_facility
#>  * <chr> <chr> <chr>     <chr>      <chr>       <chr> <chr>         <chr>       
#>  1 1003… 7517… ENKESHAFI ARDALAN    NA          NA    Hospital      390268      
#>  2 1003… 7517… ENKESHAFI ARDALAN    NA          NA    Hospital      390048      
#>  3 1003… 7517… ENKESHAFI ARDALAN    NA          NA    Hospital      210001      
#>  4 1003… 9931… KHALIL    RASHID     NA          NA    Hospital      360112      
#>  5 1003… 9133… VELOTTA   JENNIFER   A           NA    Hospital      360098      
#>  6 1003… 0446… ROTHCHILD KEVIN      B           NA    Hospital      060024      
#>  7 1003… 2163… SEMONCHE  AMANDA     M           NA    Hospital      390035      
#>  8 1003… 2163… SEMONCHE  AMANDA     M           NA    Hospital      390049      
#>  9 1003… 4082… KIM       DAE        NA          NA    Hospital      370001      
#> 10 1003… 4082… KIM       DAE        NA          NA    Hospital      370202      
#> # ℹ 1,990 more rows
#> # ℹ 1 more variable: ccn_primary <chr>
…
