CMS Main Catalog — catalog_main • providertwo
…
    CMS Main Catalog

    Usage

catalog_main()

    Value

    <list> of CMS Main API catalog information

    Examples

catalog_main()
#> $current
#> # A tibble: 139 × 14
#>    title          description modified   periodicity temporal contact identifier
#>    <chr>          <chr>       <date>     <chr>       <chr>    <chr>   <chr>     
#>  1 ACO Realizing… "The Accou… 2025-03-18 Annually [… 2021-01… ACO RE… https://d…
#>  2 ACO Realizing… "Accountab… 2025-03-18 Annually [… 2021-01… ACO RE… https://d…
#>  3 ACO Realizing… "The Accou… 2025-03-18 Annually [… 2021-01… ACO RE… https://d…
#>  4 ACO Realizing… "The Accou… 2025-03-18 Annually [… 2021-01… ACO RE… https://d…
#>  5 Accountable C… "The Accou… 2025-01-15 Annually [… 2014-01… Shared… https://d…
#>  6 Accountable C… "The Accou… 2025-01-15 Annually [… 2017-01… Shared… https://d…
#>  7 Accountable C… "The Accou… 2025-01-15 Annually [… 2014-01… Shared… https://d…
#>  8 Advance Inves… "The Advan… 2025-03-18 Annually [… 2024-01… Shared… https://d…
#>  9 Agency for He… "The Agenc… 2020-12-08 Annually [… 2015-01… Defici… https://d…
#> 10 CMS Program S… "The CMS P… 2023-03-06 Annually [… 2013-01… CMS Pr… https://d…
#> # ℹ 129 more rows
#> # ℹ 7 more variables: dictionary <chr>, site <chr>, references <chr>,
#> #   year <int>, download <chr>, filetype <chr>, resources <chr>
#> 
#> $temporal
#> # A tibble: 112 × 7
#>    title                   data description periodicity contact dictionary site 
#>  * <chr>               <list<t> <chr>       <chr>       <chr>   <chr>      <chr>
#>  1 ACO Realizing Equi…  [1 × 7] "The Accou… Annually [… ACO RE… https://d… http…
#>  2 ACO Realizing Equi…  [1 × 7] "Accountab… Annually [… ACO RE… https://d… http…
#>  3 ACO Realizing Equi…  [1 × 7] "The Accou… Annually [… ACO RE… https://d… http…
#>  4 ACO Realizing Equi…  [1 × 7] "The Accou… Annually [… ACO RE… https://d… http…
#>  5 Accountable Care O… [12 × 7] "The Accou… Annually [… Shared… https://d… http…
#>  6 Accountable Care O…  [9 × 7] "The Accou… Annually [… Shared… https://d… http…
#>  7 Accountable Care O… [12 × 7] "The Accou… Annually [… Shared… https://d… http…
#>  8 Advance Investment…  [2 × 7] "The Advan… Annually [… Shared… https://d… http…
#>  9 Agency for Healthc…  [2 × 7] "The Agenc… Annually [… Defici… https://d… http…
#> 10 COVID-19 Nursing H…  [1 × 7] "Submitted… Weekly [R/… COVID-… https://d… http…
#> # ℹ 102 more rows
…
