CMS Public Catalog — Catalog_public • providertwo
…
    CMS Public Catalog

    Usage

Catalog_public()

    Value

    <list> of <tibbles>: dataset, distribution, downloads

    Examples

Catalog_public()
#> $dataset
#> # A tibble: 139 × 16
#>    type       accessLevel accrualPeriodicity bureauCode contactPoint describedBy
#>    <chr>      <chr>       <chr>              <chr>      <list>       <chr>      
#>  1 dcat:Data… public      Annually [R/P1Y]   009:38     <named list> https://da…
#>  2 dcat:Data… public      Annually [R/P1Y]   009:38     <named list> https://da…
#>  3 dcat:Data… public      Annually [R/P1Y]   009:38     <named list> https://da…
#>  4 dcat:Data… public      Annually [R/P1Y]   009:38     <named list> https://da…
#>  5 dcat:Data… public      Annually [R/P1Y]   009:38     <named list> https://da…
#>  6 dcat:Data… public      Annually [R/P1Y]   009:38     <named list> https://da…
#>  7 dcat:Data… public      Annually [R/P1Y]   009:38     <named list> https://da…
#>  8 dcat:Data… public      Annually [R/P1Y]   009:38     <named list> https://da…
#>  9 dcat:Data… public      Annually [R/P1Y]   009:38     <named list> https://da…
#> 10 dcat:Data… public      Annually [R/P1Y]   009:38     <named list> https://da…
#> # ℹ 129 more rows
#> # ℹ 10 more variables: description <chr>, identifier <chr>, keyword <chr>,
#> #   landingPage <chr>, modified <date>, programCode <chr>, publisher <list>,
#> #   references <chr>, temporal <chr>, title <chr>
#> 
#> $distribution
#> # A tibble: 1,697 × 5
#>    title                              modified   temporal accessURL resourcesAPI
#>    <chr>                              <date>     <chr>    <chr>     <chr>       
#>  1 Accountable Care Organization Par… 2025-01-15 2025-01… https://… https://dat…
#>  2 Accountable Care Organization Par… 2024-01-29 2024-01… https://… https://dat…
#>  3 Accountable Care Organization Par… 2023-03-06 2023-01… https://… https://dat…
#>  4 Accountable Care Organization Par… 2022-01-26 2022-01… https://… https://dat…
#>  5 Accountable Care Organization Par… 2022-01-27 2021-01… https://… https://dat…
#>  6 Accountable Care Organization Par… 2022-01-27 2020-01… https://… https://dat…
#>  7 Accountable Care Organization Par… 2024-01-29 2019-01… https://… https://dat…
#>  8 Accountable Care Organization Par… 2022-01-27 2019-01… https://… https://dat…
#>  9 Accountable Care Organization Par… 2022-01-27 2018-01… https://… https://dat…
#> 10 Accountable Care Organization Par… 2022-01-27 2017-01… https://… https://dat…
#> # ℹ 1,687 more rows
#> 
#> $downloads
#> # A tibble: 1,675 × 5
#>    title                            modified   temporal downloadURL resourcesAPI
#>    <chr>                            <date>     <chr>    <chr>       <chr>       
#>  1 Accountable Care Organization P… 2025-01-15 2025-01… https://da… https://dat…
#>  2 Accountable Care Organization P… 2024-01-29 2024-01… https://da… https://dat…
#>  3 Accountable Care Organization P… 2023-03-06 2023-01… https://da… https://dat…
#>  4 Accountable Care Organization P… 2022-01-26 2022-01… https://da… https://dat…
#>  5 Accountable Care Organization S… 2025-01-15 2025-01… https://da… https://dat…
#>  6 Accountable Care Organization S… 2024-04-23 2024-01… https://da… https://dat…
#>  7 Accountable Care Organization S… 2023-03-06 2023-01… https://da… https://dat…
#>  8 Accountable Care Organization S… 2022-01-26 2022-01… https://da… https://dat…
#>  9 ACO Realizing Equity, Access an… 2024-01-12 2021-01… https://da… https://dat…
#> 10 ACO Realizing Equity, Access an… 2024-01-12 2021-01… https://da… https://dat…
#> # ℹ 1,665 more rows
…
