Load Open Payments Catalog — catalog_open • providertwo
…
#>  7 Payments Grouped by Reporting … This datas… 2025-01-30 d5762bed-… https://do…
#>  8 Payments Grouped by Reporting … This datas… 2025-01-30 61efcbef-… https://do…
#>  9 Payments Grouped by Reporting … This datas… 2025-01-30 ea5eea39-… https://do…
#> 10 Payments Grouped by Teaching H… This datas… 2025-01-30 217ad1a7-… https://do…
#> 11 Physician (Distinct) Profile I… This datas… 2025-01-30 6ed6ae76-… https://do…
#> 12 Profile Information             This datas… 2025-01-30 f2ed17cc-… https://do…
#> 13 Provider Profile ID Mapping Ta… Maps secon… 2025-01-30 d19e5be2-… https://do…
#> 14 Reporting Entity Profile Infor… This datas… 2025-01-30 1cf0c6c0-… https://do…
#> 15 State Level Payment Total and … This datas… 2025-01-30 02157882-… https://do…
#> 16 State Payment Totals and Avera… Groups pay… 2025-01-30 7c5144d9-… https://do…
#> 17 Summary Dashboard - all Years   Summary da… 2025-01-30 e0d225fc-… https://do…
#> 18 Teaching Hospital Profile Info… This datas… 2025-01-30 8219fcb3-… https://do…
#> 
#> $grouped
#> # A tibble: 35 × 5
#>     year title                                 modified   identifier downloadurl
#>    <int> <chr>                                 <date>     <chr>      <chr>      
#>  1  2023 Payments Grouped by Covered Recipien… 2025-01-30 4017acfa-… https://do…
#>  2  2022 Payments Grouped by Covered Recipien… 2025-01-30 686b765e-… https://do…
#>  3  2021 Payments Grouped by Covered Recipien… 2025-01-30 d35243be-… https://do…
#>  4  2020 Payments Grouped by Covered Recipien… 2025-01-30 1fd2be47-… https://do…
#>  5  2019 Payments Grouped by Covered Recipien… 2025-01-30 0ff0961f-… https://do…
#>  6  2018 Payments Grouped by Covered Recipien… 2025-01-30 07c1e377-… https://do…
#>  7  2017 Payments Grouped by Covered Recipien… 2025-01-30 5aad28fa-… https://do…
#>  8  2023 Payments Grouped by Covered Recipien… 2025-01-30 4fbf0094-… https://do…
#>  9  2022 Payments Grouped by Covered Recipien… 2025-01-30 d2d87f39-… https://do…
#> 10  2021 Payments Grouped by Covered Recipien… 2025-01-30 7c9ebb83-… https://do…
#> # ℹ 25 more rows
…
