CMS Provider Catalog — catalog_provider • providertwo
…
    CMS Provider Catalog

    Usage

catalog_provider()

    Value

    <list> of Provider API catalog information

    Examples

catalog_provider()
#> $dialysis_facilities
#> # A tibble: 23 × 10
#>    title description keyword issued     modified   released   identifier contact
#>    <chr> <chr>       <chr>   <date>     <date>     <date>     <chr>      <chr>  
#>  1 Dial… A list of … Qualit… 2020-03-14 2024-12-21 2025-01-15 23ew-n7w9  Dialys…
#>  2 Dial… National a… Qualit… 2020-03-14 2024-12-21 2025-01-15 2rkq-ygai  Dialys…
#>  3 Dial… State aver… Qualit… 2020-03-14 2024-12-21 2025-01-15 2fpu-cgbb  Dialys…
#>  4 ESRD… This datas… Linkin… 2021-01-20 2024-12-03 2025-01-15 clinical_… ESRD Q…
#>  5 ESRD… This datas… Linkin… 2021-01-20 2024-12-03 2025-01-15 complete_… ESRD Q…
#>  6 ESRD… This datas… Linkin… 2025-01-15 2024-12-03 2025-01-15 covid-19_… ESRD Q…
#>  7 ESRD… This datas… Linkin… 2021-01-20 2024-12-03 2025-01-15 ktv_compr… ESRD Q…
#>  8 ESRD… This table… Linkin… 2021-01-20 2024-12-03 2025-01-15 footnotes  ESRD Q…
#>  9 ESRD… This datas… Linkin… 2021-01-20 2024-12-03 2025-01-15 hypercalc… ESRD Q…
#> 10 ESRD… This datas… Linkin… 2021-01-20 2024-12-03 2025-01-15 qip_ich_c… ESRD Q…
#> # ℹ 13 more rows
#> # ℹ 2 more variables: downloadurl <chr>, site <chr>
…
#> # A tibble: 8 × 10
#>   title  description keyword issued     modified   released   identifier contact
#>   <chr>  <chr>       <chr>   <date>     <date>     <date>     <chr>      <chr>  
#> 1 Hospi… This datas… Genera… 2025-01-13 2025-01-13 2025-02-19 yc9t-dgbk  Hospic…
#> 2 Hospi… A list of … Measur… 2025-01-13 2025-01-13 2025-02-19 252m-zfp9  Hospic…
#> 3 Hospi… State data… State,… 2025-01-13 2025-01-13 2025-02-19 eda0-92f0  Hospic…
#> 4 Hospi… A list of … Locati… 2025-01-13 2025-01-13 2025-02-19 95rg-2usp  Hospic…
#> 5 Hospi… This data … Nation… 2025-01-13 2025-01-13 2025-02-19 7cv8-v37d  CMS (m…
#> 6 Hospi… This data … Averag… 2025-01-13 2025-01-13 2025-02-19 gxki-hrr8  CMS (m…
#> 7 Hospi… This data … State,… 2025-01-13 2025-01-13 2025-02-19 a55e-5b88  CMS (m…
#> 8 Hospi… National d… Nation… 2025-01-13 2025-01-13 2025-02-19 3xeb-u9wp  Hospic…
#> # ℹ 2 more variables: downloadurl <chr>, site <chr>
#> 
#> $hospitals
#> # A tibble: 74 × 10
#>    title description keyword issued     modified   released   identifier contact
#>    <chr> <chr>       <chr>   <date>     <date>     <date>     <chr>      <chr>  
#>  1 Ambu… A list of … Ambula… 2024-10-10 2025-01-15 2025-02-19 4jcv-atw7  Hospit…
#>  2 Ambu… This file … Ambula… 2024-10-10 2025-01-15 2025-02-19 wue8-3vwe  Hospit…
#>  3 Ambu… This file … Ambula… 2024-10-10 2025-01-15 2025-02-19 axe7-s95e  Hospit…
#>  4 CMS … This data … Compli… 2020-12-10 2025-01-08 2025-02-19 muwa-iene  Hospit…
#>  5 Comp… Complicati… Compli… 2023-07-05 2025-01-08 2025-02-19 ynj2-r877  Hospit…
#>  6 Comp… Complicati… Compli… 2020-12-10 2025-01-08 2025-02-19 qqw3-t4ie  Hospit…
#>  7 Comp… Complicati… Compli… 2020-12-10 2025-01-08 2025-02-19 bs2r-24vh  Hospit…
#>  8 Comp… Prospectiv… Cancer… 2024-07-31 2025-01-08 2025-02-19 z8ax-x9j1  Hospit…
#>  9 Comp… Prospectiv… Nation… 2024-07-31 2025-01-08 2025-02-19 jfnd-nl7s  Hospit…
#> 10 Comp… Comprehens… Compre… 2020-12-10 2025-01-08 2025-02-19 tqkv-mgxq  Hospit…
#> # ℹ 64 more rows
#> # ℹ 2 more variables: downloadurl <chr>, site <chr>
…
#> 10 Medi… Quality me… Qualit… 2023-06-01 2025-02-01 2025-02-26 ijh5-nb2v  Nursin…
#> 11 Nurs… This table… Qualit… 2024-10-01 2025-02-01 2025-02-26 qmdc-9999  Nursin…
#> 12 Owne… A list of … Owners… 2023-06-01 2025-02-01 2025-02-26 y2hd-n93e  Nursin…
#> 13 Pena… A list of … Penalt… 2023-06-01 2025-02-01 2025-02-26 g6vv-u9sr  Nursin…
#> 14 Prov… General in… Genera… 2024-07-01 2025-02-01 2025-02-26 4pq5-n9py  Nursin…
#> 15 Skil… Skilled Nu… Skille… 2024-10-01 2025-02-01 2025-02-26 5sqm-2qku  Nursin…
#> 16 Skil… Skilled Nu… Skille… 2024-10-01 2025-02-01 2025-02-26 fykj-qjee  Nursin…
#> 17 Skil… Non-Critic… Skille… 2024-10-01 2025-02-01 2025-02-26 6uyb-waub  Nursin…
#> 18 Stat… A list of … Averag… 2025-01-01 2025-02-01 2025-02-26 xcdc-v8bm  Nursin…
#> 19 Stat… State-spec… Defici… 2021-04-01 2025-02-01 2025-02-26 hicp-9999  Nursin…
#> 20 Surv… Nursing ho… Compla… 2023-06-01 2025-02-01 2025-02-26 tbry-pc2d  Nursin…
#> # ℹ 2 more variables: downloadurl <chr>, site <chr>
#> 
#> $physician_office_visit_costs
#> # A tibble: 85 × 10
#>    title description keyword issued     modified   released   identifier contact
#>    <chr> <chr>       <chr>   <date>     <date>     <date>     <chr>      <chr>  
#>  1 Addi… Returns ad… Addict… 2024-08-05 2024-08-05 2024-08-08 3614-1eef  PPL Da…
#>  2 Adva… Returns ad… Advanc… 2024-08-05 2024-08-05 2024-08-08 bdd5-4a04  PPL Da…
#>  3 Alle… Returns al… Allerg… 2024-08-05 2024-08-05 2024-08-08 4269-8a74  PPL Da…
#>  4 Anes… Returns an… Anesth… 2024-08-05 2024-08-05 2024-08-08 2fbd-6172  PPL Da…
#>  5 Audi… Returns au… Audiol… 2024-08-05 2024-08-05 2024-08-08 e491-a466  PPL Da…
#>  6 Card… Returns ca… Cardia… 2024-08-05 2024-08-05 2024-08-08 075a-d487  PPL Da…
#>  7 Card… Returns ca… Cardio… 2024-08-05 2024-08-05 2024-08-08 3f64-129e  PPL Da…
#>  8 Cert… Returns ce… Certif… 2024-08-05 2024-08-05 2024-08-08 ea2d-9467  PPL Da…
#>  9 Cert… Returns ce… Certif… 2024-08-05 2024-08-05 2024-08-08 9873-722a  PPL Da…
#> 10 Cert… Returns ce… Certif… 2024-08-05 2024-08-05 2024-08-08 3a83-ee2d  PPL Da…
#> # ℹ 75 more rows
#> # ℹ 2 more variables: downloadurl <chr>, site <chr>
…
