CMS Provider Catalog — Catalog_provider • providertwo
…
    CMS Provider Catalog

    Usage

Catalog_provider()

    Value

    <list> of <tibbles>: dataset, download

    Examples

Catalog_provider()
#> # A tibble: 151 × 13
#>    landingPage  issued     modified   released   keyword contactPoint identifier
#>  * <chr>        <date>     <date>     <date>     <chr>   <list>       <chr>     
#>  1 https://dat… 2020-03-14 2024-12-21 2025-01-15 Qualit… <named list> https://d…
#>  2 https://dat… 2020-03-14 2024-12-21 2025-01-15 Qualit… <named list> https://d…
#>  3 https://dat… 2020-03-14 2024-12-21 2025-01-15 Qualit… <named list> https://d…
#>  4 https://dat… 2020-03-14 2024-12-21 2025-01-15 Patien… <named list> https://d…
#>  5 https://dat… 2020-03-14 2024-12-21 2025-01-15 Patien… <named list> https://d…
#>  6 https://dat… 2024-12-02 2024-12-02 2025-01-15 Genera… <named list> https://d…
#>  7 https://dat… 2024-12-02 2024-12-02 2025-01-15 Addres… <named list> https://d…
#>  8 https://dat… 2024-12-02 2024-12-02 2025-01-15 Genera… <named list> https://d…
#>  9 https://dat… 2024-10-22 2024-11-14 2024-11-26 Locati… <named list> https://d…
#> 10 https://dat… 2024-10-22 2024-11-14 2024-11-26 Genera… <named list> https://d…
#> # ℹ 141 more rows
#> # ℹ 6 more variables: description <chr>, title <chr>, distribution <list>,
#> #   theme <chr>, downloadURL <chr>, mediaType <chr>
…
