Medicare Provider Enrollees — enrollees • providertwo
…
enrollees(pac = "2860305554", gender = "9")
#> ℹ 1 Result ☰ 1 Request
#>   
#> # A tibble: 1 × 11
#>   V1         V2         V3       V4    V5    V6    V7    V8    V9    V10   V11  
#>   <chr>      <chr>      <chr>    <chr> <chr> <chr> <chr> <chr> <chr> <chr> <chr>
#> 1 1134122260 2860305554 I200311… 14-41 PRAC… TX    ROBE… ""    YEAM… ""    9    

enrollees(state = "GA", gender = "9")
#> ℹ 121 Results ☰ 1 Request
#>   
#> # A tibble: 100 × 11
#>    V1         V2         V3      V4    V5    V6    V7    V8    V9    V10   V11  
#>    <chr>      <chr>      <chr>   <chr> <chr> <chr> <chr> <chr> <chr> <chr> <chr>
#>  1 1508822776 3476457953 I20031… 14-77 PRAC… GA    KENN… "F"   MENC… ""    9    
#>  2 1619914975 1557264553 I20040… 14-11 PRAC… GA    DINA… "B"   SHET… ""    9    
#>  3 1285670901 7012807977 I20040… 14-11 PRAC… GA    LLOYD "S"   GOOD… ""    9    
#>  4 1841207917 1456343961 I20040… 14-02 PRAC… GA    ERIC  "M"   KNAU… ""    9    
#>  5 1942275425 1658364039 I20040… 14-93 PRAC… GA    MICH… "K"   HAMM  ""    9    
#>  6 1275645459 4789677840 I20040… 14-38 PRAC… GA    RAMS… "E"   JACK… ""    9    
#>  7 1073608899 9638164619 I20040… 14-66 PRAC… GA    ANNA… ""    BHAT  ""    9    
#>  8 1124147343 1850388026 I20040… 14-65 PRAC… GA    JAMES "M"   HINZ… ""    9    
#>  9 1336246149 7911996392 I20040… 14-16 PRAC… GA    AMY   "C"   BURG… ""    9    
#> 10 1891773792 7113917816 I20040… 14-50 PRAC… GA    JANI… "J"   WILES ""    9    
#> # ℹ 90 more rows
…
