Create Groups of Endpoints — groups • providertwo
…
#>  3 District of Columbia NA         251,791                180,942               
#>  4 Wyoming              NA         64,442                 391                   
#>  5 Pennsylvania         NA         2,753,618              2,521,421             
#>  6 Massachusetts        NA         1,889,306              1,268,120             
#>  7 North Dakota         NA         93,422                 48,621                
#>  8 Michigan             NA         4,448,582              4,370,138             
#>  9 Virginia             NA         1,111,999              761,019               
#> 10 Hawaii               NA         358,302                354,289               
#> # ℹ abbreviated names: ¹​total_medicaid_enrollees, ²​individuals_enrolled_any
#> # ℹ 4 more variables: percent_of_all_medicaid_enrollees_any <chr>,
#> #   individuals_enrolled_comprehensive <chr>,
#> #   percent_of_all_medicaid_enrollees_comprehensive <chr>, year <chr>
#> 
quick("revalid_group")
#> # A tibble: 5,000 × 15
#>    `Group PAC ID` `Group Enrollment ID` `Group Legal Business Name`            
#>    <chr>          <chr>                 <chr>                                  
#>  1 6305933532     O20071103000162       'a' Street Clinic Of Chiropractic, Pllc
#>  2 1850813254     O20250314001303       1 Care Partners Llc                    
#>  3 3274795547     O20120502000499       1 Community Wellness & Health Inc      
#>  4 1658693460     O20141205001656       1 Cp Place Pllc                        
#>  5 1658693460     O20141205001656       1 Cp Place Pllc                        
#>  6 5890010177     O20150209000022       1 Hour Eyedocs, Llc                    
#>  7 6204378193     O20240606002709       1 Identity Counseling, Llc             
#>  8 4789081530     O20210922000917       1 Love Wellness Society Llc            
#>  9 4789081530     O20210922000917       1 Love Wellness Society Llc            
#> 10 4789081530     O20210922000917       1 Love Wellness Society Llc            
#> # ℹ 4,990 more rows
#> # ℹ 12 more variables: `Group State Code` <chr>, `Group Due Date` <chr>,
#> #   `Group Reassignments and Physician Assistants` <chr>, `Record Type` <chr>,
#> #   `Individual Enrollment ID` <chr>, `Individual NPI` <chr>,
#> #   `Individual First Name` <chr>, `Individual Last Name` <chr>,
#> #   `Individual State Code` <chr>, `Individual Specialty Description` <chr>,
#> #   `Individual Due Date` <chr>, …
…
