List resources — list_resources • providertwo
…
    Examples

list_resources(endpoint("enroll_prov"))
#> # A tibble: 7 × 5
#>    year file                                                 size ext   download
#>   <int> <chr>                                              <fs::> <chr> <chr>   
#> 1  2025 Medicare FFS Public Provider Enrollment Q2         291.8M csv   https:/…
#> 2  2025 Medicare Fee-For-Service Public Provider Enrollme… 546.8K pdf   https:/…
#> 3  2025 Medicare FFS Public Provider Enrollment Methodolo… 351.8K pdf   https:/…
#> 4  2025 Reassignment Sub-File Q2                           105.5M csv   https:/…
#> 5  2025 Address Sub-File Q2                                 40.6M csv   https:/…
#> 6  2025 Secondary Specialty Sub-File Q2                     26.8M csv   https:/…
#> 7  2025 Medicare Fee-For-Service Public Provider Enrollme…  31.9K pdf   https:/…
list_resources(endpoint("qppe"))
#> # A tibble: 21 × 5
#>     year file                                  size ext   download              
#>    <int> <chr>                          <fs::bytes> <chr> <chr>                 
#>  1  2023 QPP Experience                        383M csv   https://data.cms.gov/…
#>  2  2023 QPP Experience Data Dictionary        445K pdf   https://data.cms.gov/…
#>  3  2023 QPP Experience Methodology            311K pdf   https://data.cms.gov/…
#>  4  2022 QPP Experience                        417M csv   https://data.cms.gov/…
#>  5  2022 QPP Experience Data Dictionary        701K pdf   https://data.cms.gov/…
#>  6  2022 QPP Experience Methodology            361K pdf   https://data.cms.gov/…
#>  7  2021 QPP Experience                        252M csv   https://data.cms.gov/…
#>  8  2021 QPP Experience Data Dictionary        422K pdf   https://data.cms.gov/…
#>  9  2021 QPP Experience Methodology            317K pdf   https://data.cms.gov/…
#> 10  2020 QPP Experience                        311M csv   https://data.cms.gov/…
#> # ℹ 11 more rows
list_resources(collection("in_hosp"))
#> $in_geo
#> # A tibble: 33 × 5
#>     year file                                                size ext   download
#>    <int> <chr>                                            <fs::b> <chr> <chr>   
#>  1  2023 Medicare IP Hospitals - by Geography and Service   2.92M csv   https:/…
#>  2  2023 Medicare IP Hospitals - by Geography and Servic…  94.66K pdf   https:/…
#>  3  2023 Medicare Inpatient Hospitals Methodology         297.24K pdf   https:/…
#>  4  2022 Medicare IP Hospitals - by Geography and Service   2.89M csv   https:/…
#>  5  2022 Medicare IP Hospitals - by Geography and Servic…  94.66K pdf   https:/…
#>  6  2022 Medicare Inpatient Hospitals Methodology         297.24K pdf   https:/…
#>  7  2021 Medicare IP Hospitals - by Geography and Service   2.93M csv   https:/…
#>  8  2021 Medicare IP Hospitals - by Geography and Servic…  94.66K pdf   https:/…
#>  9  2021 Medicare Inpatient Hospitals Methodology         297.24K pdf   https:/…
#> 10  2020 Medicare IP Hospitals - by Geography and Service   2.96M csv   https:/…
#> # ℹ 23 more rows
#> 
#> $in_prov
#> # A tibble: 42 × 5
#>     year file                                                size ext   download
#>    <int> <chr>                                            <fs::b> <chr> <chr>   
#>  1  2023 Medicare IP Hospitals - by Provider                1.73M csv   https:/…
#>  2  2023 Medicare IP Hospitals - by Provider Data Dictio… 241.55K pdf   https:/…
#>  3  2023 Medicare Inpatient Hospitals Methodology         297.24K pdf   https:/…
#>  4  2022 Medicare IP Hospitals - by Provider                1.75M csv   https:/…
#>  5  2022 Medicare IP Hospitals - by Provider Data Dictio… 241.55K pdf   https:/…
#>  6  2022 Medicare Inpatient Hospitals Methodology         297.24K pdf   https:/…
#>  7  2021 Medicare IP Hospitals - by Provider                1.76M csv   https:/…
#>  8  2021 Medicare IP Hospitals - by Provider Data Dictio… 241.55K pdf   https:/…
#>  9  2021 Medicare Inpatient Hospitals Methodology         297.24K pdf   https:/…
#> 10  2021 Medicare Inpatient Hospitals HCC Distribution     17.51K xlsx  https:/…
#> # ℹ 32 more rows
#> 
#> $in_serv
#> # A tibble: 44 × 5
#>     year file                                                size ext   download
#>    <int> <chr>                                             <fs::> <chr> <chr>   
#>  1  2023 Medicare IP Hospitals - by Provider and Service    36.4M csv   https:/…
#>  2  2023 Medicare IP Hospitals - by Provider and Service …    94K pdf   https:/…
#>  3  2023 Medicare Inpatient Hospitals Methodology          297.2K pdf   https:/…
#>  4  2023 Medicare Inpatient Hospitals Technical Specifica… 329.3K pdf   https:/…
#>  5  2022 Medicare IP Hospitals - by Provider and Service    36.1M csv   https:/…
#>  6  2022 Medicare IP Hospitals - by Provider and Service …    94K pdf   https:/…
#>  7  2022 Medicare Inpatient Hospitals Methodology          297.2K pdf   https:/…
#>  8  2022 Medicare Inpatient Hospitals Technical Specifica… 329.3K pdf   https:/…
#>  9  2021 Medicare IP Hospitals - by Provider and Service    37.7M csv   https:/…
#> 10  2021 Medicare IP Hospitals - by Provider and Service …    94K pdf   https:/…
#> # ℹ 34 more rows
…
