Search the NLM NPI Registry — npi_nlm • providertwo
…
    Value

    <tibble> of search results

<tibble> of search results

    Examples

npi_nlm("john bethesda")
#> ◼ NPPES [NLM]
#> ◼ 135 RWS [1 PG]
#> ◼ 135 RWS [1 PG]
#> # A tibble: 135 × 4
#>    full_name       npi        specialty                             full_address
#>    <chr>           <chr>      <chr>                                 <chr>       
#>  1 KELLY, JOHN     1760880173 Dentist                               4833 BETHES…
#>  2 VAVREK, JOHN    1801864624 Military Health Care Provider         NNMC BETHES…
#>  3 SCHACHT, JOHN   1760801047 Medical Genetics and Genomics         WR, 8901 RO…
#>  4 WAGGONER, JOHN  1104320076 Physician/General Surgery             8901 WISCON…
#>  5 BEIGEL, JOHN    1396705372 Physician/Internal Medicine           10 CENTER D…
#>  6 TOERGE, JOHN    1376542282 Physician/Physical Medicine and Reha… 6410 ROCKLE…
#>  7 HIGGINS, JOHN   1184702201 Dentist                               5648 SHIELD…
#>  8 ORISASONA, JOHN 1760833891 Home Health Aide                      3812 BETHES…
#>  9 NEAL, JOHN      1295710713 Dentist                               8901 ROCKVI…
#> 10 WEEKS, JOHN     1750077236 Military Health Care Provider         8901 WISCON…
#> # ℹ 125 more rows
npi_nlm("Wiregrass Georgia")
#> ◼ NPPES [NLM]
#> ◼ 1 RW [1 PG]
#> ◼ 1 RW [1 PG]
#> # A tibble: 1 × 4
#>   full_name        npi        specialty full_address                            
#>   <chr>            <chr>      <chr>     <chr>                                   
#> 1 STEWART, CHARLES 1881965564 Dentist   4089 VAL TECH RD WIREGRASS GEORGIA TECH…
npi_nlm("Dentist Valdosta")
#> ◼ NPPES [NLM]
#> ◼ 56 RWS [1 PG]
#> ◼ 56 RWS [1 PG]
#> # A tibble: 56 × 4
#>    full_name           npi        specialty full_address                        
#>    <chr>               <chr>      <chr>     <chr>                               
#>  1 RASMUSSEN, DUHWAN   1366117186 Dentist   282 NORMAN DR, VALDOSTA, GA 31601   
#>  2 MARABLE, STANLEY    1295883957 Dentist   308 JANET ST, VALDOSTA, GA 31602    
#>  3 BROADFOOT, JAMES    1174704837 Dentist   414 PENDLETON PL, VALDOSTA, GA 31602
#>  4 MAXWELL, DOUGLAS    1205999133 Dentist   2415 ANDOVER DR, VALDOSTA, GA 31602 
#>  5 GRAY, HARDY         1497104871 Dentist   3362 GREYSTONE WAY, VALDOSTA, GA 31…
#>  6 ROWELL, EUGENE, III 1790347185 Dentist   2711 WINDEMERE DR, VALDOSTA, GA 316…
#>  7 DEPTA, BRENT        1649370339 Dentist   2711 WINDEMERE DR, VALDOSTA, GA 316…
#>  8 BYNUM, JAMES        1144249673 Dentist   802 NORTHWOOD PARK DR, VALDOSTA, GA…
#>  9 SHIVER, RON         1467494443 Dentist   818 NORTHWOOD PARK DR, VALDOSTA, GA…
#> 10 BARKER, MEREDITH    1770703720 Dentist   2311 N PATTERSON ST, VALDOSTA, GA 3…
#> # ℹ 46 more rows
npi_nlm("Valdosta")
#> ◼ NPPES [NLM]
#> ◼ 1687 RWS [4 PGS]
#> ◼ 1687 RWS [4 PGS]
#> # A tibble: 1,687 × 4
#>    full_name               npi        specialty                     full_address
#>    <chr>                   <chr>      <chr>                         <chr>       
#>  1 SANDERLIN, CHARLES, JR. 1083618052 Physician/General Surgery     3527 N VALD…
#>  2 GOSS, JAMES             1144224197 Physician/General Surgery     3527 N VALD…
#>  3 HERMANSEN, DAVID        1891035663 Physician Assistant           3527 N VALD…
#>  4 CANELON, JOSE           1932882164 Physical Therapist in Privat… 3527 N VALD…
#>  5 BLACK, JALISSA          1770346785 Occupational Therapist in Pr… 3256 N VALD…
#>  6 MARK, EDWARD, JR.       1619089125 Physician/General Surgery     4274 N VALD…
#>  7 FIELDING, ASHLEY        1437111069 Physical Therapist in Privat… 4274 N VALD…
#>  8 ALVARADO, ALAN          1972581767 Physician/Pediatric Medicine  3440 N VALD…
#>  9 REED, TAYLER            1063067940 Psychologist, Clinical        3256 N VALD…
#> 10 COWART, STEVEN          1700146107 Physician/General Surgery     3527 N VALD…
#> # ℹ 1,677 more rows
npi_nlm("Atlanta")
#> Warning: ! 10000 Results Found
#> ✔ Returning API limit of [7500].
#> ◼ NPPES [NLM]
#> ◼ 7500 RWS [16 PGS]
#> ◼ 7500 RWS [16 PGS]
#> # A tibble: 7,500 × 4
#>    full_name         npi        specialty                           full_address
#>    <chr>             <chr>      <chr>                               <chr>       
#>  1 BENJAMIN, ATLANTA 1326776444 Chiropractic                        2567 W GOLF…
#>  2 ADKINS, ATLANTA   1356023022 Technician                          224 MILL ST…
#>  3 WILLIAMS, ATLANTA 1023670940 Registered Nurse                    240 BUCKTAI…
#>  4 MAYTON, ATLANTA   1326679895 Licensed Vocational Nurse           1313 LAFAYE…
#>  5 HUFF, ATLANTA     1851157887 Counselor                           446 MORGAN …
#>  6 ROLOFF, ATLANTA   1073242244 Dentist                             13000 TECHN…
#>  7 MACKLIN, ATLANTA  1083207948 Registered Dietitian or Nutrition … 2115 STEPHE…
#>  8 MCCRAVEY, ATLANTA 1538777081 Nurse Practitioner                  2166 E BROA…
#>  9 BLACK, ATLANTA    1992516892 Specialist/Technologist             5716 S ARRO…
#> 10 MORELIK, ATLANTA  1407621188 Case Manager/Care Coordinator       60 W SUNBRI…
#> # ℹ 7,490 more rows
…
