Search the NLM NPI Registry — nppes_nlm • providertwo
…
    Arguments

terms
<chr> Search terms, separated by spaces

    Value

    <tibble> of search results

    Examples

nppes_nlm("john bethesda")
#> → 135 Results ☰ 1 Requests
#> # A tibble: 135 × 4
#>    name            npi        specialty                                  address
#>    <chr>           <chr>      <chr>                                      <chr>  
#>  1 KELLY, JOHN     1760880173 Dentist                                    4833 B…
#>  2 VAVREK, JOHN    1801864624 Military Health Care Provider              NNMC B…
#>  3 SCHACHT, JOHN   1760801047 Medical Genetics and Genomics              WR, 89…
#>  4 WAGGONER, JOHN  1104320076 Physician/General Surgery                  8901 W…
#>  5 BEIGEL, JOHN    1396705372 Physician/Internal Medicine                10 CEN…
#>  6 TOERGE, JOHN    1376542282 Physician/Physical Medicine and Rehabilit… 6410 R…
#>  7 HIGGINS, JOHN   1184702201 Dentist                                    5648 S…
#>  8 ORISASONA, JOHN 1760833891 Home Health Aide                           3812 B…
#>  9 NEAL, JOHN      1295710713 Dentist                                    8901 R…
#> 10 WEEKS, JOHN     1750077236 Military Health Care Provider              8901 W…
#> # ℹ 125 more rows

nppes_nlm("Dentist Valdosta")
#> → 56 Results ☰ 1 Requests
#> # A tibble: 56 × 4
#>    name                npi        specialty address                             
#>    <chr>               <chr>      <chr>     <chr>                               
#>  1 RASMUSSEN, DUHWAN   1366117186 Dentist   282 NORMAN DR, VALDOSTA, GA 31601   
#>  2 MARABLE, STANLEY    1295883957 Dentist   308 JANET ST, VALDOSTA, GA 31602    
#>  3 BROADFOOT, JAMES    1174704837 Dentist   414 PENDLETON PL, VALDOSTA, GA 31602
#>  4 MAXWELL, DOUGLAS    1205999133 Dentist   2415 ANDOVER DR, VALDOSTA, GA 31602 
#>  5 GRAY, HARDY         1497104871 Dentist   3362 GREYSTONE WAY, VALDOSTA, GA 31…
#>  6 ROWELL, EUGENE, III 1790347185 Dentist   2711 WINDEMERE DR, VALDOSTA, GA 316…
#>  7 DEPTA, BRENT        1649370339 Dentist   2711 WINDEMERE DR, VALDOSTA, GA 316…
#>  8 BYNUM, JAMES        1144249673 Dentist   802 NORTHWOOD PARK DR, VALDOSTA, GA…
#>  9 SHIVER, RON         1467494443 Dentist   818 NORTHWOOD PARK DR, VALDOSTA, GA…
#> 10 BARKER, MEREDITH    1770703720 Dentist   2311 N PATTERSON ST, VALDOSTA, GA 3…
#> # ℹ 46 more rows

# Not returning all results
nppes_nlm("Valdosta")
#> → 1,687 Results ☰ 4 Requests
#> # A tibble: 1,000 × 4
#>    name                    npi        specialty                          address
#>    <chr>                   <chr>      <chr>                              <chr>  
#>  1 SANDERLIN, CHARLES, JR. 1083618052 Physician/General Surgery          3527 N…
#>  2 GOSS, JAMES             1144224197 Physician/General Surgery          3527 N…
#>  3 HERMANSEN, DAVID        1891035663 Physician Assistant                3527 N…
#>  4 CANELON, JOSE           1932882164 Physical Therapist in Private Pra… 3527 N…
#>  5 BLACK, JALISSA          1770346785 Occupational Therapist in Private… 3256 N…
#>  6 MARK, EDWARD, JR.       1619089125 Physician/General Surgery          4274 N…
#>  7 FIELDING, ASHLEY        1437111069 Physical Therapist in Private Pra… 4274 N…
#>  8 ALVARADO, ALAN          1972581767 Physician/Pediatric Medicine       3440 N…
#>  9 REED, TAYLER            1063067940 Psychologist, Clinical             3256 N…
#> 10 COWART, STEVEN          1700146107 Physician/General Surgery          3527 N…
#> # ℹ 990 more rows
…
