Open Payments Summaries — open_summary • providertwo
…
open_dashboard()

open_national()

    Value

    A <tibble>

    Examples

open_dashboard()
#> Error in stri_replace_first_regex(metric, "^Total Number of ", ""): could not find function "stri_replace_first_regex"
open_national()
#> # A tibble: 24 × 10
#>    year  payment_type recipient_type        recipient_n payment_sum payment_mean
#>    <fct> <fct>        <fct>                       <int>       <dbl>        <dbl>
#>  1 2021  General      Non-Physician Practi…      235295  122322841.         520.
#>  2 2022  General      Non-Physician Practi…      274191  170574491.         622.
#>  3 2023  General      Non-Physician Practi…      309374  209135792.         676 
#>  4 ALL   General      Non-Physician Practi…      414843  502033124.        1210.
#>  5 2021  Research     Non-Physician Practi…          86     424947.        4941.
#>  6 2022  Research     Non-Physician Practi…         127     413856.        3259.
#>  7 2023  Research     Non-Physician Practi…         226     531520.        2352.
#>  8 ALL   Research     Non-Physician Practi…         391    1370324.        3505.
#>  9 2017  General      Physician                  635227 2193219859.        3453.
#> 10 2018  General      Physician                  631460 2268764326.        3593.
#> # ℹ 14 more rows
#> # ℹ 4 more variables: payment_median <dbl>, payments_n <int>,
#> #   payments_mean <dbl>, payments_median <dbl>
…
