Quickly access CMS data — quick • providertwo
…
#>  7 CO    1                         78                     0                     
#>  8 CT    2                         45                     0                     
#>  9 DC    0                         17                     0                     
#> 10 DE    0                         28                     1                     
#> # ℹ abbreviated names: ¹​survival_better_than_expected_state,
#> #   ²​survival_as_expected_state, ³​survival_worse_than_expected_state
#> # ℹ 45 more variables: hospitalizations_better_than_expected_state <chr>,
#> #   hospitalizations_as_expected_state <chr>,
#> #   hospitalizations_worse_than_expected_state <chr>,
#> #   hospital_readmission__better_than_expected_state <chr>,
#> #   hospital_readmission__as_expected_state <chr>, …
#> 
quick("care_nhome")
#> $nhome_performance
#> # A tibble: 30 × 57
#>     year `Affiliated entity`       `Affiliated entity ID` `Number of facilities`
#>    <int> <chr>                     <chr>                  <chr>                 
#>  1  2025 National                  NA                     14774                 
#>  2  2025 A&M HEALTHCARE INVESTMEN… 641                    2                     
#>  3  2025 ABBY GL, LLC              1                      6                     
#>  4  2025 ABCM CORPORATION          2                      28                    
#>  5  2025 ABRAHAM BAK & MENACHEM G… 4                      15                    
#>  6  2025 ABRAHAM KRAUS             615                    10                    
#>  7  2025 ABRAHAM SMILOW            662                    7                     
#>  8  2025 ABRI HEALTH CARE          5                      5                     
#>  9  2025 ABSOLUT CARE              6                      6                     
#> 10  2025 ACCOLADE HEALTHCARE       7                      7                     
#> # ℹ 20 more rows
#> # ℹ 53 more variables:
#> #   `Number of states and territories with operations` <chr>,
#> #   `Number of Special Focus Facilities (SFF)` <chr>,
#> #   `Number of SFF candidates` <chr>,
#> #   `Number of facilities with an abuse icon` <chr>,
#> #   `Percentage of facilities with an abuse icon` <chr>, …
#> 
#> $nhome_mds_frequency
#> # A tibble: 60 × 7
#>     year `Geographical Location` `Report Date` `MDS Item Question/Description`  
#>    <int> <chr>                   <chr>         <chr>                            
#>  1  2025 Alabama                 Q1, 2025      A1000A: Identification Informati…
#>  2  2025 Alabama                 Q1, 2025      A1000A: Identification Informati…
#>  3  2025 Alaska                  Q1, 2025      A1000A: Identification Informati…
#>  4  2025 Alaska                  Q1, 2025      A1000A: Identification Informati…
#>  5  2025 Arizona                 Q1, 2025      A1000A: Identification Informati…
#>  6  2025 Arizona                 Q1, 2025      A1000A: Identification Informati…
#>  7  2025 Arkansas                Q1, 2025      A1000A: Identification Informati…
#>  8  2025 Arkansas                Q1, 2025      A1000A: Identification Informati…
#>  9  2025 California              Q1, 2025      A1000A: Identification Informati…
#> 10  2025 California              Q1, 2025      A1000A: Identification Informati…
#> # ℹ 50 more rows
#> # ℹ 3 more variables: `MDS Item Response` <chr>, Percent <chr>,
#> #   `Total Residents` <chr>
#> 
#> $nhome_mds_facility
#> # A tibble: 30 × 17
#>     year CCN    `Provider Name`        City  State `Zip Code` `FIPS County Code`
#>    <int> <chr>  <chr>                  <chr> <chr> <chr>      <chr>             
#>  1  2025 015009 BURNS NURSING HOME, I… RUSS… AL    35653      059               
#>  2  2025 015009 BURNS NURSING HOME, I… RUSS… AL    35653      059               
#>  3  2025 015009 BURNS NURSING HOME, I… RUSS… AL    35653      059               
#>  4  2025 015009 BURNS NURSING HOME, I… RUSS… AL    35653      059               
#>  5  2025 015009 BURNS NURSING HOME, I… RUSS… AL    35653      059               
#>  6  2025 015009 BURNS NURSING HOME, I… RUSS… AL    35653      059               
#>  7  2025 015009 BURNS NURSING HOME, I… RUSS… AL    35653      059               
#>  8  2025 015009 BURNS NURSING HOME, I… RUSS… AL    35653      059               
#>  9  2025 015009 BURNS NURSING HOME, I… RUSS… AL    35653      059               
#> 10  2025 015009 BURNS NURSING HOME, I… RUSS… AL    35653      059               
#> # ℹ 20 more rows
#> # ℹ 10 more variables: `County Name` <chr>, `Report Date` <chr>,
#> #   `MDS Item Question/Description` <chr>, `MDS Item Response` <chr>,
#> #   `Overall Percent` <chr>, `Total Residents` <chr>,
#> #   `Short-Stay Percent` <chr>, `Short-Stay Residents` <chr>,
#> #   `Long-Stay Percent` <chr>, `Long-Stay Residents` <chr>
…
