Quick Query — quick_query_ • providertwo
…
q3 <- list(
  `conditions[0][property]` = "asc2_rate",
  `conditions[0][operator]` = "<",
  `conditions[0][value]` = "0.02")

quick_query_(asc, q0)
#> ✖ Query
#> `conditions[0][property]=state&conditions[0][operator]==&conditions[0][value]=ZZ`
#> returned 0 results.
quick_query_(asc, q1)
#> ✔ Returning 326 results...
#> # A tibble: 326 × 50
#>    facility_name       facility_id npi   citytown state zip_code year  asc1_rate
#>    <chr>               <chr>       <chr> <chr>    <chr> <chr>    <chr> <chr>    
#>  1 RENAL FOCUS ASC LL… 33C0001208  1003… PLAINVI… NY    11803    2023  N/A      
#>  2 RENAL FOCUS ASC LL… 33C0001208  1003… PLAINVI… NY    11803    2024… N/A      
#>  3 MID BRONX ENDOSCOP… 33C0001168  1023… BRONX    NY    10453    2023  N/A      
#>  4 MID BRONX ENDOSCOP… 33C0001168  1023… BRONX    NY    10453    2024… N/A      
#>  5 STAR SUITES LLC DB… 33C0001199  1023… GARDEN … NY    11530    2023  N/A      
#>  6 STAR SUITES LLC DB… 33C0001199  1023… GARDEN … NY    11530    2024… N/A      
#>  7 ISLAND AMBULATORY … 33C0001152  1033… BROOKLYN NY    11223    2023  N/A      
#>  8 ISLAND AMBULATORY … 33C0001152  1033… BROOKLYN NY    11223    2024… N/A      
#>  9 DUTCHESS AMBULATOR… 33C0001034  1043… POUGHKE… NY    12603    2023  N/A      
#> 10 DUTCHESS AMBULATOR… 33C0001034  1043… POUGHKE… NY    12603    2024… N/A      
#> # ℹ 316 more rows
#> # ℹ 42 more variables: asc1_footnote <chr>, asc2_rate <chr>,
#> #   asc2_footnote <chr>, asc3_rate <chr>, asc3_footnote <chr>, asc4_rate <chr>,
#> #   asc4_footnote <chr>, asc9_rate <chr>, asc9_footnote <chr>,
#> #   asc11_rate <chr>, asc11_footnote <chr>, asc12_total_cases <chr>,
#> #   asc12_performance_category <chr>, asc12_rshv_rate <chr>,
#> #   asc12_interval_lower_limit <chr>, asc12_interval_upper_limit <chr>, …
#quick_query_(asc, q2)
quick_query_(asc, q3)
#> ✔ Returning 1879 results...
#> # A tibble: 1,879 × 50
#>    facility_name       facility_id npi   citytown state zip_code year  asc1_rate
#>    <chr>               <chr>       <chr> <chr>    <chr> <chr>    <chr> <chr>    
#>  1 NORTHERN NJ ENDOSC… 31C0001270  1003… NEWTON   NJ    07860    2023  0.00     
#>  2 NEWPORT PLAZA SURG… 05C0001672  1003… COSTA M… CA    92627    2023  0.00     
#>  3 DESERT VISTA SURGI… 03C0001439  1003… SCOTTSD… AZ    85258    2023  0.00     
#>  4 ON BEACH SURGERY C… 55C0001110  1003… BUENA P… CA    90621    2023  0.00     
#>  5 LENOX SURGERY CENT… 23C0001154  1003… LENOX    MI    48048    2023  0.00     
#>  6 SAGAMORE SURGICAL … 15C0001041  1003… LAFAYET… IN    47909    2023  0.00     
#>  7 SUMMIT SURGERY CEN… 19C0001097  1003… COVINGT… LA    70433    2023  0.00     
#>  8 SILVER SPRING OPHT… 21C0001177  1003… SILVER … MD    20910    2023  0.00     
#>  9 SURGERY CENTER OF … 34C0001114  1003… PINEHUR… NC    28374    2023  0.00     
#> 10 CENTRAL TEXAS ENDO… 45C0001265  1003… BRYAN    TX    77802    2023  0.00     
#> # ℹ 1,869 more rows
#> # ℹ 42 more variables: asc1_footnote <chr>, asc2_rate <chr>,
#> #   asc2_footnote <chr>, asc3_rate <chr>, asc3_footnote <chr>, asc4_rate <chr>,
#> #   asc4_footnote <chr>, asc9_rate <chr>, asc9_footnote <chr>,
#> #   asc11_rate <chr>, asc11_footnote <chr>, asc12_total_cases <chr>,
#> #   asc12_performance_category <chr>, asc12_rshv_rate <chr>,
#> #   asc12_interval_lower_limit <chr>, asc12_interval_upper_limit <chr>, …
…
